[gd_scene load_steps=4 format=2]

[ext_resource path="res://Resources/icon.png" type="Texture" id=1]
[ext_resource path="res://src/Palyer.gd" type="Script" id=2]

[sub_resource type="RectangleShape2D" id=1]
extents = Vector2( 11.3008, 16.8135 )

[node name="Player" type="RigidBody2D"]
position = Vector2( 438, 269 )
mode = 2
mass = 0.00102041
gravity_scale = 0.0
can_sleep = false
script = ExtResource( 2 )

[node name="Camera2D" type="Camera2D" parent="."]
current = true
zoom = Vector2( 0.5, 0.5 )

[node name="Sprite" type="Sprite" parent="."]
scale = Vector2( 0.3, 0.5 )
texture = ExtResource( 1 )

[node name="CollisionShape2D" type="CollisionShape2D" parent="."]
shape = SubResource( 1 )
