[gd_scene load_steps=2 format=2]

[ext_resource path="res://src/UI.gd" type="Script" id=1]

[node name="ButtonPanel" type="MarginContainer"]
light_mask = 2
anchor_right = 1.0
anchor_bottom = 1.0
margin_right = -836.0
margin_bottom = -580.0
script = ExtResource( 1 )
__meta__ = {
"_edit_use_anchors_": false
}

[node name="HBoxContainer" type="HBoxContainer" parent="."]
margin_right = 188.0
margin_bottom = 20.0
rect_min_size = Vector2( 32, 0 )
alignment = 1

[node name="Button" type="Button" parent="HBoxContainer"]
margin_right = 20.0
margin_bottom = 20.0
text = "1"

[node name="Button2" type="Button" parent="HBoxContainer"]
margin_left = 24.0
margin_right = 44.0
margin_bottom = 20.0
text = "2"

[node name="Button3" type="Button" parent="HBoxContainer"]
margin_left = 48.0
margin_right = 68.0
margin_bottom = 20.0
text = "3"

[node name="Button4" type="Button" parent="HBoxContainer"]
margin_left = 72.0
margin_right = 92.0
margin_bottom = 20.0
text = "4"

[node name="Button5" type="Button" parent="HBoxContainer"]
margin_left = 96.0
margin_right = 116.0
margin_bottom = 20.0
text = "5"

[node name="Button6" type="Button" parent="HBoxContainer"]
margin_left = 120.0
margin_right = 140.0
margin_bottom = 20.0
text = "6"

[node name="Button7" type="Button" parent="HBoxContainer"]
margin_left = 144.0
margin_right = 164.0
margin_bottom = 20.0
text = "7"

[node name="Button8" type="Button" parent="HBoxContainer"]
margin_left = 168.0
margin_right = 188.0
margin_bottom = 20.0
text = "8"
